^C:\USERS\KAGAE\SOURCE\REPOS\SUPERPROJECT\HELPERS.CPP|C:\USERS\KAGAE\SOURCE\REPOS\SUPERPROJECT\MAIN.CPP
C:\USERS\KAGAE\SOURCE\REPOS\SUPERPROJECT\SUPERPROJECT\X64\DEBUG\VC143.PDB
C:\USERS\KAGAE\SOURCE\REPOS\SUPERPROJECT\SUPERPROJECT\X64\DEBUG\VC143.IDB
C:\USERS\KAGAE\SOURCE\REPOS\SUPERPROJECT\SUPERPROJECT\X64\DEBUG\HELPERS.OBJ
C:\USERS\KAGAE\SOURCE\REPOS\SUPERPROJECT\SUPERPROJECT\X64\DEBUG\MAIN.OBJ
^C:\USERS\KAGAE\SOURCE\REPOS\SUPERPROJECT\HELPERS.CPP
C:\USERS\KAGAE\SOURCE\REPOS\SUPERPROJECT\SUPERPROJECT\X64\DEBUG\VC143.PDB
^C:\USERS\KAGAE\SOURCE\REPOS\SUPERPROJECT\MAIN.CPP
C:\USERS\KAGAE\SOURCE\REPOS\SUPERPROJECT\SUPERPROJECT\X64\DEBUG\VC143.PDB
C:\USERS\KAGAE\SOURCE\REPOS\SUPERPROJECT\SUPERPROJECT\X64\DEBUG\VC143.IDB
C:\USERS\KAGAE\SOURCE\REPOS\SUPERPROJECT\SUPERPROJECT\X64\DEBUG\MAIN.OBJ
