^C:\USERS\KAGAE\SOURCE\REPOS\SUPERPROJECT\SUPERPROJECT\X64\DEBUG\HELPERS.OBJ|C:\USERS\KAGAE\SOURCE\REPOS\SUPERPROJECT\SUPERPROJECT\X64\DEBUG\MAIN.OBJ
C:\USERS\KAGAE\SOURCE\REPOS\SUPERPROJECT\X64\DEBUG\SUPERPROJECT.EXE
C:\USERS\KAGAE\SOURCE\REPOS\SUPERPROJECT\X64\DEBUG\SUPERPROJECT.PDB
